%YAML 1.1
%TAG !u! tag:unity3d.com,2011:
--- !u!114 &11400000
MonoBehaviour:
  m_ObjectHideFlags: 0
  m_CorrespondingSourceObject: {fileID: 0}
  m_PrefabInstance: {fileID: 0}
  m_PrefabAsset: {fileID: 0}
  m_GameObject: {fileID: 0}
  m_Enabled: 1
  m_EditorHideFlags: 0
  m_Script: {fileID: 11500000, guid: 7e2ca8b81e0afd34d9a43b7705372233, type: 3}
  m_Name: HeartOfFire_SM
  m_EditorClassIdentifier: 
  _type: 0
  _stats:
    _health: 0
    _healthRegen: 0
    _barrier: 0
    _barrierRegen: 0
    _actionPoints: 0
    _actionPointsRegen: 0
    _orbs:
      _fire: 1
      _water: 0
      _earth: 0
      _air: 0
    _orbsRegen:
      _fire: 1
      _water: 0
      _earth: 0
      _air: 0
    _resistances:
      _fire: 0.2
      _water: 0
      _earth: 0
      _air: 0
    _spellPower:
      _fire: 10
      _water: 0
      _earth: 0
      _air: 0
