%YAML 1.1
%TAG !u! tag:unity3d.com,2011:
--- !u!114 &11400000
MonoBehaviour:
  m_ObjectHideFlags: 0
  m_CorrespondingSourceObject: {fileID: 0}
  m_PrefabInstance: {fileID: 0}
  m_PrefabAsset: {fileID: 0}
  m_GameObject: {fileID: 0}
  m_Enabled: 1
  m_EditorHideFlags: 0
  m_Script: {fileID: 11500000, guid: df2f7eba46e61874396ddfaac2e0d769, type: 3}
  m_Name: ActionEffect_EarthDamageEffect
  m_EditorClassIdentifier: 
  _effectName: Effect
  _baseSpellPower:
    _fire: 0
    _water: 0
    _earth: 15
    _air: 0
  _spellPowerPercentage:
    _fire: 0
    _water: 0
    _earth: 0
    _air: 0
  bypassBarrier: 0
