%YAML 1.1
%TAG !u! tag:unity3d.com,2011:
--- !u!1001 &7140242707759631407
PrefabInstance:
  m_ObjectHideFlags: 0
  serializedVersion: 2
  m_Modification:
    m_TransformParent: {fileID: 0}
    m_Modifications:
    - target: {fileID: 1980473598722008883, guid: 2ddbcb2ed7b24a843bcba218ccda1798,
        type: 3}
      propertyPath: m_Name
      value: WaterBall_Displayer
      objectReference: {fileID: 0}
    - target: {fileID: 2173964959082641492, guid: 2ddbcb2ed7b24a843bcba218ccda1798,
        type: 3}
      propertyPath: _speed
      value: 2
      objectReference: {fileID: 0}
    - target: {fileID: 2375748672357741223, guid: 2ddbcb2ed7b24a843bcba218ccda1798,
        type: 3}
      propertyPath: m_LocalPosition.x
      value: 0
      objectReference: {fileID: 0}
    - target: {fileID: 2375748672357741223, guid: 2ddbcb2ed7b24a843bcba218ccda1798,
        type: 3}
      propertyPath: m_LocalPosition.y
      value: 0
      objectReference: {fileID: 0}
    - target: {fileID: 2375748672357741223, guid: 2ddbcb2ed7b24a843bcba218ccda1798,
        type: 3}
      propertyPath: m_LocalPosition.z
      value: 0
      objectReference: {fileID: 0}
    - target: {fileID: 2375748672357741223, guid: 2ddbcb2ed7b24a843bcba218ccda1798,
        type: 3}
      propertyPath: m_LocalRotation.x
      value: 0
      objectReference: {fileID: 0}
    - target: {fileID: 2375748672357741223, guid: 2ddbcb2ed7b24a843bcba218ccda1798,
        type: 3}
      propertyPath: m_LocalRotation.y
      value: 0
      objectReference: {fileID: 0}
    - target: {fileID: 2375748672357741223, guid: 2ddbcb2ed7b24a843bcba218ccda1798,
        type: 3}
      propertyPath: m_LocalRotation.z
      value: 0
      objectReference: {fileID: 0}
    - target: {fileID: 2375748672357741223, guid: 2ddbcb2ed7b24a843bcba218ccda1798,
        type: 3}
      propertyPath: m_LocalRotation.w
      value: 1
      objectReference: {fileID: 0}
    - target: {fileID: 2375748672357741223, guid: 2ddbcb2ed7b24a843bcba218ccda1798,
        type: 3}
      propertyPath: m_RootOrder
      value: 0
      objectReference: {fileID: 0}
    - target: {fileID: 2375748672357741223, guid: 2ddbcb2ed7b24a843bcba218ccda1798,
        type: 3}
      propertyPath: m_LocalEulerAnglesHint.x
      value: 0
      objectReference: {fileID: 0}
    - target: {fileID: 2375748672357741223, guid: 2ddbcb2ed7b24a843bcba218ccda1798,
        type: 3}
      propertyPath: m_LocalEulerAnglesHint.y
      value: 0
      objectReference: {fileID: 0}
    - target: {fileID: 2375748672357741223, guid: 2ddbcb2ed7b24a843bcba218ccda1798,
        type: 3}
      propertyPath: m_LocalEulerAnglesHint.z
      value: 0
      objectReference: {fileID: 0}
    - target: {fileID: 2375748672357741223, guid: 2ddbcb2ed7b24a843bcba218ccda1798,
        type: 3}
      propertyPath: m_LocalScale.x
      value: 0.5
      objectReference: {fileID: 0}
    - target: {fileID: 2375748672357741223, guid: 2ddbcb2ed7b24a843bcba218ccda1798,
        type: 3}
      propertyPath: m_LocalScale.y
      value: 0.5
      objectReference: {fileID: 0}
    - target: {fileID: 8428587122571517235, guid: 2ddbcb2ed7b24a843bcba218ccda1798,
        type: 3}
      propertyPath: m_Sprite
      value: 
      objectReference: {fileID: 21300000, guid: 0e377becea688e6439f074a5987f0474,
        type: 3}
    m_RemovedComponents: []
  m_SourcePrefab: {fileID: 100100000, guid: 2ddbcb2ed7b24a843bcba218ccda1798, type: 3}
