%YAML 1.1
%TAG !u! tag:unity3d.com,2011:
--- !u!114 &11400000
MonoBehaviour:
  m_ObjectHideFlags: 0
  m_CorrespondingSourceObject: {fileID: 0}
  m_PrefabInstance: {fileID: 0}
  m_PrefabAsset: {fileID: 0}
  m_GameObject: {fileID: 0}
  m_Enabled: 1
  m_EditorHideFlags: 0
  m_Script: {fileID: 11500000, guid: 0cabedec10f8aba488e0ca1ab7a79014, type: 3}
  m_Name: WrathOfThunder
  m_EditorClassIdentifier: 
  _talentGUID: 4c328f07c33f08b4d8b1bcc286b90239
  _talentName: Wrath of Thunder
  _cost: 25
  _elementType: 3
  _elementLevels:
    _fire: 0
    _water: 0
    _earth: 0
    _air: 0
  _statModifiers: []
  _spells:
  - {fileID: 11400000, guid: 1929b8ad113a79040a1866fb3087d4ca, type: 2}
