%YAML 1.1
%TAG !u! tag:unity3d.com,2011:
--- !u!114 &11400000
MonoBehaviour:
  m_ObjectHideFlags: 0
  m_CorrespondingSourceObject: {fileID: 0}
  m_PrefabInstance: {fileID: 0}
  m_PrefabAsset: {fileID: 0}
  m_GameObject: {fileID: 0}
  m_Enabled: 1
  m_EditorHideFlags: 0
  m_Script: {fileID: 11500000, guid: 0cabedec10f8aba488e0ca1ab7a79014, type: 3}
  m_Name: LesserShielding_Talent
  m_EditorClassIdentifier: 
  _talentGUID: d53eaa2bc6fdc524c9d89dfcef099c8a
  _talentName: Lesser Shielding
  _cost: 20
  _elementType: 2
  _elementLevels:
    _fire: 0
    _water: 0
    _earth: 0
    _air: 0
  _statModifiers: []
  _spells:
  - {fileID: 11400000, guid: c3c0a7511c3408e42bb649bf0d7a81ab, type: 2}
