{
    "name": "Elementalist",
    "references": [
        "GUID:0d8beb7f090555447a6cf5ce9e54dbb4",
        "GUID:d0acddb179989574c8355991596bd3e6",
        "GUID:6055be8ebefd69e48b49212b09b47b2f"
    ],
    "includePlatforms": [],
    "excludePlatforms": [],
    "allowUnsafeCode": false,
    "overrideReferences": false,
    "precompiledReferences": [],
    "autoReferenced": true,
    "defineConstraints": [],
    "versionDefines": []
}