%YAML 1.1
%TAG !u! tag:unity3d.com,2011:
--- !u!114 &11400000
MonoBehaviour:
  m_ObjectHideFlags: 0
  m_CorrespondingSourceObject: {fileID: 0}
  m_PrefabInstance: {fileID: 0}
  m_PrefabAsset: {fileID: 0}
  m_GameObject: {fileID: 0}
  m_Enabled: 1
  m_EditorHideFlags: 0
  m_Script: {fileID: 11500000, guid: 0cabedec10f8aba488e0ca1ab7a79014, type: 3}
  m_Name: Fireball_Talent
  m_EditorClassIdentifier: 
  _talentGUID: e066b44e3580d424482fdbe82a275d7c
  _talentName: Fireball
  _cost: 40
  _elementType: 0
  _elementLevels:
    _fire: 0
    _water: 0
    _earth: 0
    _air: 0
  _statModifiers: []
  _spells:
  - {fileID: 11400000, guid: 95d381947f0e7f743b4f1105ad1b09a4, type: 2}
