%YAML 1.1
%TAG !u! tag:unity3d.com,2011:
--- !u!114 &11400000
MonoBehaviour:
  m_ObjectHideFlags: 0
  m_CorrespondingSourceObject: {fileID: 0}
  m_PrefabInstance: {fileID: 0}
  m_PrefabAsset: {fileID: 0}
  m_GameObject: {fileID: 0}
  m_Enabled: 1
  m_EditorHideFlags: 0
  m_Script: {fileID: 11500000, guid: 803a66c3caefdfb418c5de1bf3604747, type: 3}
  m_Name: WaterBall
  m_EditorClassIdentifier: 
  _itemName: Water Ball
  _item: 6
  _itemRarity: 0
  _icon: {fileID: 21300000, guid: 0e377becea688e6439f074a5987f0474, type: 3}
  _description: Glass ball full of water. Could be useful if fire needs to be put
    out.
  _stackSize: 2
  _buyPrice: 15
  _sellPrice: 3
  _actionDisplayerPrefab: {fileID: 8677085009360415516, guid: 6891c07fb2c4a2f418fcc284b9605d90,
    type: 3}
  _actionPointsCost: 2
  _targeting: {fileID: 11400000, guid: 06bb6261b21b73b419d5e2a0dd691791, type: 2}
  _targetTypes: 02000000
  _temporaryEffects: []
  _immediateEffects:
  - _item: {fileID: 11400000, guid: ee4c0bdd705490741a2c7d0b732a1627, type: 2}
    _probability: 1
