%YAML 1.1
%TAG !u! tag:unity3d.com,2011:
--- !u!114 &11400000
MonoBehaviour:
  m_ObjectHideFlags: 0
  m_CorrespondingSourceObject: {fileID: 0}
  m_PrefabInstance: {fileID: 0}
  m_PrefabAsset: {fileID: 0}
  m_GameObject: {fileID: 0}
  m_Enabled: 1
  m_EditorHideFlags: 0
  m_Script: {fileID: 11500000, guid: bb78b56cfeba5044f955c73d5c56586b, type: 3}
  m_Name: ActionEffect_ExecuteWhenAdded
  m_EditorClassIdentifier: 
  _effectName: Shocking Rocks
  _executeWhenAdded: 1
  _processOnRoundBegan: 1
  _length: 2
  _period: 1
  _statModifier: {fileID: 0}
  _scriptableImmediateEffects:
  - {fileID: 11400000, guid: 203252d4f3ad08942a4ce5f891eecb34, type: 2}
  - {fileID: 11400000, guid: bddd7c2acb0adfa41a144707448fc4bd, type: 2}
