%YAML 1.1
%TAG !u! tag:unity3d.com,2011:
--- !u!114 &11400000
MonoBehaviour:
  m_ObjectHideFlags: 0
  m_CorrespondingSourceObject: {fileID: 0}
  m_PrefabInstance: {fileID: 0}
  m_PrefabAsset: {fileID: 0}
  m_GameObject: {fileID: 0}
  m_Enabled: 1
  m_EditorHideFlags: 0
  m_Script: {fileID: 11500000, guid: c66bb937dd7028d4cb7197ce9e394d36, type: 3}
  m_Name: LesserHeal_Heal
  m_EditorClassIdentifier: 
  _effectName: Lesser Heal
  _baseSpellPower:
    _fire: 0
    _water: 10
    _earth: 0
    _air: 0
  _spellPowerPercentage:
    _fire: 0
    _water: 0.25
    _earth: 0
    _air: 0
