%YAML 1.1
%TAG !u! tag:unity3d.com,2011:
--- !u!114 &11400000
MonoBehaviour:
  m_ObjectHideFlags: 0
  m_CorrespondingSourceObject: {fileID: 0}
  m_PrefabInstance: {fileID: 0}
  m_PrefabAsset: {fileID: 0}
  m_GameObject: {fileID: 0}
  m_Enabled: 1
  m_EditorHideFlags: 0
  m_Script: {fileID: 11500000, guid: ae27bd75b59a8e34aa9585271295411c, type: 3}
  m_Name: DefaultColorPreset
  m_EditorClassIdentifier: 
  _textColor: {r: 0.933885, g: 0.9339623, b: 0.9295568, a: 1}
  _valueColor: {r: 0.9433962, g: 0.9433962, b: 0.9433962, a: 1}
  _elementColors:
    _fireColor: {r: 0.7058824, g: 0.1254902, b: 0.16470589, a: 1}
    _waterColor: {r: 0.15686275, g: 0.36078432, b: 0.7686275, a: 1}
    _earthColor: {r: 0.3529412, g: 0.30588236, b: 0.26666668, a: 1}
    _airColor: {r: 0.7254902, g: 0.7490196, b: 0.9843138, a: 1}
